No,Account,"Order Code","Product Code","Product Name","Customer Name",Mobile-Phone,Email,Country,Province,City,Area,"Zip Code",Address,"Order Quantity","Logistic Company","Tracking Code","Shipping Cost",Price,"Coupon Code","Value Coupon","Payment Method",Total,Status,Date
1,SHOPBAY.ID,#SB100046,,"I7 TWS HEADSET BLUETOOTH WIRELESS",Rosdiana,085224436464,dian.azkaghaniabqari@yahoo.co.id,IDN,"JAWA BARAT","KABUPATEN TASIKMALAYA","Kec. SINGAPARNA",46414,"Kantor Kecamatn Singaparna jl. Bojongkoneng Singaparna Tasikmalaya",1,jne,,15000.00,297000.00,,0.00,cod,312000,wait-payment,"14-01-2019 12:20"
2,SHOPBAY.ID,#SB100045,,"I7 TWS HEADSET BLUETOOTH WIRELESS",Yonga,085216796363,Yongadunhill@gmail.com,IDN,"DKI JAKARTA","KOTA JAKARTA UTARA","Kec. PENJARINGAN",14450,"Jln c no 73a",1,jne,,8000.00,297000.00,,0.00,transfer,305000,wait-payment,"14-01-2019 09:06"
3,SHOPBAY.ID,#SB100039,,"I7 TWS HEADSET BLUETOOTH WIRELESS",mahyanuddin,081360362251,spulim43@gmail.com,IDN,ACEH,"KOTA LANGSA","Kec. ",24415,"jln perumnas desa birem puntong (kantor kpu kota langsa)",1,jne,,20000.00,297000.00,,0.00,cod,317000,wait-payment,"13-01-2019 17:59"
4,SHOPBAY.ID,#SB100038,,"I7 TWS HEADSET BLUETOOTH WIRELESS","Vieko Rompas",082290460133,mocosz.13@gmail.com,IDN,"SULAWESI UTARA","KOTA BITUNG","Kec. ",95514,"PT.Indofoot sukses makmur TBK cabang bitung",1,jne,,20000.00,297000.00,,0.00,transfer,317000,wait-payment,"13-01-2019 16:29"
5,SHOPBAY.ID,#SB100037,,"I7 TWS HEADSET BLUETOOTH WIRELESS","Andi Muhammad Rizal Wawo ",085234562627,rizal.wawo@icloud.com,IDN,"SULAWESI SELATAN","KOTA MAKASSAR","Kec. ",90231,"Jl. Pengayoman kompleks Bougenville blok. C No.1",1,jne,,20000.00,297000.00,,0.00,cod,317000,wait-payment,"13-01-2019 13:32"
6,SHOPBAY.ID,#SB100036,,"I7 TWS HEADSET BLUETOOTH WIRELESS","Reza maulana",08175910133,Rezamaualan@gmail.com,IDN,"JAWA TIMUR","KOTA MALANG","Kec. ",65139,"Jl.sawunggaling no 77",1,jne,,20000.00,297000.00,,0.00,cod,317000,wait-payment,"12-01-2019 22:42"
7,SHOPBAY.ID,#SB100035,,"I7 TWS HEADSET BLUETOOTH WIRELESS",Harman,085398087772,pnpm.barat@gmail.com,IDN,"SULAWESI SELATAN","KABUPATEN BONE","Kec. ",92700,"Jalan lapawawoi karaeng sigeri lorong persatuan samping mesjid supukalau",1,jne,,20000.00,297000.00,,0.00,cod,317000,wait-payment,"12-01-2019 03:08"
8,SHOPBAY.ID,#SB100034,,"I7 TWS HEADSET BLUETOOTH WIRELESS","Deden Sutrisna ",081284138811,dedenbrennan@gmail.com,IDN,"DKI JAKARTA","KOTA JAKARTA PUSAT","Kec. ",10240,"Appartement Citylofts Citywalk unit.2822 Sudirman Jakarta Pusat",1,jne,,20000.00,297000.00,,0.00,cod,317000,wait-payment,"11-01-2019 22:19"
9,SHOPBAY.ID,#SB100033,,"I7 TWS HEADSET BLUETOOTH WIRELESS","Kurniadi Syahputra",085271010121,Kurniadisyah@gmail.com,IDN,RIAU,"KOTA PEKANBARU","Kec. ",28125,"Jl.Air Dingin Perumahan D'Anugrah Block E7",1,jne,,20000.00,297000.00,,0.00,cod,317000,wait-payment,"11-01-2019 20:50"
10,SHOPBAY.ID,#SB100032,,"I7 TWS HEADSET BLUETOOTH WIRELESS","Jl.Yos Sudarso No.5",+6282112088895,harvinsumampouw82@gmail.com,IDN,PAPUA,"KABUPATEN MIMIKA","Kec. ",99910,"Jl.Yos Sudarso No.5",1,jne,,20000.00,297000.00,,0.00,cod,317000,wait-payment,"11-01-2019 16:54"
11,SHOPBAY.ID,#SB100031,,"I7 TWS HEADSET BLUETOOTH WIRELESS","Nemin. ",081362635477,nemin.aminudin97@gmail.com,IDN,ACEH,"KABUPATEN SIMEULUE","Kec. ",83893,"Labuhan bakti ",1,jne,,20000.00,297000.00,,0.00,cod,317000,wait-payment,"11-01-2019 16:15"
12,SHOPBAY.ID,#SB100030,,"I7 TWS HEADSET BLUETOOTH WIRELESS",Susandi,085247020767,Shandyselow@gmail.com,IDN,"KALIMANTAN BARAT","KOTA PONTIANAK","Kec. ",78235,"Tj,raya 1 kampung dalam belakang mesjid jami",1,jne,,20000.00,297000.00,,0.00,cod,317000,wait-payment,"11-01-2019 09:17"
13,SHOPBAY.ID,#SB100029,,"I7 TWS HEADSET BLUETOOTH WIRELESS","Dede purwanto",087743554323,dedepurwanto77249@gmail.com,IDN,"JAWA BARAT","KABUPATEN BANDUNG","Kec. ",40614,"Jl soekarnohatta no 851 cibiru depan stikes bhakti kencana bandung",1,jnt,,20000.00,297000.00,,0.00,cod,317000,wait-payment,"10-01-2019 23:50"
14,SHOPBAY.ID,#SB100028,,"I7 TWS HEADSET BLUETOOTH WIRELESS",niko,081908822122,nikoriansyah@gmail.com,IDN,BANTEN,"KOTA TANGERANG SELATAN","Kec. ",15417,"Jalan Pamulang Raya",1,jne,-,20000.00,299000.00,FREEONGKIR,20000.00,transfer,299000,delivery-process,"10-01-2019 17:35"
15,SHOPBAY.ID,#SB100027,,"I7 TWS HEADSET BLUETOOTH WIRELESS",agus,8119401602,agusdwi89@gmail.com,IDN,"SULAWESI UTARA","KABUPATEN KEPULAUAN SANGIHE","Kec. ",32432,"poligriya residence",1,jnt,,20000.00,299000.00,,0.00,transfer,319000,wait-payment,"10-01-2019 00:53"
16,SHOPBAY.ID,#SB100026,,"I7 TWS HEADSET BLUETOOTH WIRELESS",agus,8119401602,agusdwi89@gmail.com,IDN,"SULAWESI UTARA","KABUPATEN MINAHASA","Kec. ",32432,"poligriya residence",1,jnt,,20000.00,299000.00,FREEONGKIR,20000.00,transfer,299000,wait-payment,"10-01-2019 00:46"
17,SHOPBAY.ID,#SB100025,,"I7 TWS HEADSET BLUETOOTH WIRELESS",agus,8119401602,agusdwi89@gmail.com,IDN,"SULAWESI UTARA","KABUPATEN MINAHASA","Kec. ",32432,"poligriya residence",1,jne,,20000.00,299000.00,,0.00,cod,319000,wait-payment,"10-01-2019 00:45"
18,SHOPBAY.ID,#SB100024,,"I7 TWS HEADSET BLUETOOTH WIRELESS",Testing,089342234,testing@rocketmail.com,IDN,BALI,"KOTA DENPASAR","Kec. ",34253,"Jl. Aja",1,jne,,20000.00,299000.00,,0.00,transfer,319000,wait-payment,"09-01-2019 18:24"
19,SHOPBAY.ID,#SB100023,,"I7 TWS HEADSET BLUETOOTH WIRELESS",Test,907732232,test@yahoo.com,IDN,"DI YOGYAKARTA","KABUPATEN GUNUNG KIDUL","Kec. ",25784,"Jl. Jalan",1,jne,,20000.00,299000.00,FREEONGKIR,20000.00,cod,299000,wait-payment,"09-01-2019 18:22"
20,SHOPBAY.ID,#SB100022,,"I7 TWS HEADSET BLUETOOTH WIRELESS",agus,8119401602,agusdwi89@gmail.com,IDN,"SULAWESI UTARA","KABUPATEN KEPULAUAN TALAUD","Kec. ",32432,"poligriya residence",1,jne,,20000.00,299000.00,,0.00,cod,319000,wait-payment,"09-01-2019 16:49"
21,SHOPBAY.ID,#SB100021,,"I7 TWS HEADSET BLUETOOTH WIRELESS","Bintang Suryo",08972332342,bintang.suryo@gmail.com,IDN,BANTEN,"KOTA TANGERANG SELATAN","Kec. ",15417,"Jalan Kemuning 5, Pamulang Park Residence Blok K24, Pamulang Barat",1,jnt,,20000.00,299000.00,FREEONGKIR,20000.00,transfer,299000,wait-payment,"09-01-2019 11:55"
22,SHOPBAY.ID,#SB100020,,"I7 TWS HEADSET BLUETOOTH WIRELESS",Niko,081908822122,nikoriansyah@gmail.com,IDN,"DKI JAKARTA","KOTA JAKARTA SELATAN","Kec. ",14515,"Jalan pamulanf",1,jnt,CGK717655Xx,20000.00,299000.00,FREEONGKIR,20000.00,cod,299000,delivery-process,"09-01-2019 07:58"
23,SHOPBAY.ID,#SB100019,,"I7 TWS HEADSET BLUETOOTH WIRELESS",Syapri,08126044852,syapri.lawyer@gmail.com,IDN,"SUMATERA UTARA","KABUPATEN DELI SERDANG","Kec. ",20371,"Jalan Beringin Pasar V No. 16 Tembung, Percut Sei Tua ",1,jnt,,20000.00,299000.00,,0.00,cod,319000,delivery-process,"08-01-2019 22:32"
24,SHOPBAY.ID,#SB100016,,"I7 TWS HEADSET BLUETOOTH WIRELESS",Uji,07765632324,uji.coba@gmail.com,IDN,"DI YOGYAKARTA","KABUPATEN BANTUL","Kec. ",89764,"Jl Yuk Ke Mall",1,jne,,30000.00,299000.00,,0.00,transfer,329000,wait-payment,"07-01-2019 17:43"
25,SHOPBAY.ID,#SB100015,,"I7 TWS HEADSET BLUETOOTH WIRELESS",Test,07896874523,testaja@yahoo.com,IDN,"DKI JAKARTA","KOTA JAKARTA PUSAT","Kec. ",11470,"Jl. Jilin",1,jne,,30000.00,299000.00,,0.00,cod,329000,wait-payment,"07-01-2019 15:53"
26,SHOPBAY.ID,#SB100014,,"I7 TWS HEADSET BLUETOOTH WIRELESS",Test,09786786432,testing@yahoo.com,IDN,"DKI JAKARTA","KOTA JAKARTA SELATAN","Kec. ",84753,"Jl. Jalan",1,jne,,30000.00,299000.00,,0.00,transfer,329000,wait-payment,"07-01-2019 13:49"
27,SHOPBAY.ID,#SB100013,,,waw,081908822122,nikoriansyah@gmail.com,IDN,"DI YOGYAKARTA","KABUPATEN SLEMAN","Kec. ",12212,sasasawa,1,jnt,CGK152715763517576,20000.00,800000.00,,0.00,cod,820000,delivery-process,"04-01-2019 13:49"
28,SHOPBAY.ID,#SB100012,,,sasa,081908822122,2hkhk@gmail.com,IDN,"DKI JAKARTA","KOTA JAKARTA SELATAN","Kec. ",11313,sawqwwedsdsdw,1,jne,,30000.00,800000.00,,0.00,transfer,830000,wait-payment,"04-01-2019 12:13"
29,SHOPBAY.ID,#SB100011,,,"niko riansyah",081908822122,nikoriansyah@gmail.com,IDN,BANTEN,"KOTA TANGERANG SELATAN","Kec. ",15417,"pamulang city blok k 24",1,jne,,30000.00,800000.00,,0.00,transfer,830000,delivery-process,"04-01-2019 11:53"
30,SHOPBAY.ID,#SB100010,,,sa,sasa,aa@gmail.com,IDN,"JAWA TIMUR","KABUPATEN SIDOARJO","Kec. ",sasa,sasasa,1,jne,,30000.00,800000.00,,0.00,transfer,830000,delivery-process,"04-01-2019 11:00"
31,SHOPBAY.ID,#SB100009,,asdasdasd,agus,8119401602,agusdwi89@gmail.com,IDN,"SULAWESI UTARA","KABUPATEN MINAHASA","Kec. ",32432,"poligriya residence",1,jne,,30000.00,123213.00,newyear,50000.00,transfer,103213,completed,"04-01-2019 05:33"
32,SHOPBAY.ID,#SB100007,,asdasdasd,agus,8119401602,agusdwi89@gmail.com,IDN,"SULAWESI UTARA","KABUPATEN KEPULAUAN SANGIHE","Kec. ",32432,"poligriya residence",1,jnt,,20000.00,123213.00,,0.00,cod,143213,wait-payment,"03-01-2019 00:38"
33,SHOPBAY.ID,#SB100006,,asdasdasd,agus,8119401602,agusdwi89@gmail.com,IDN,"SULAWESI UTARA","KABUPATEN KEPULAUAN TALAUD","Kec. ",32432,"poligriya residence",1,jnt,,20000.00,123213.00,,0.00,cod,143213,wait-payment,"03-01-2019 00:21"
34,SHOPBAY.ID,#SB100005,,asdasdasd,agus,8119401602,agusdwi89@gmail.com,IDN,"SULAWESI UTARA","KABUPATEN KEPULAUAN SANGIHE","Kec. ",32432,"poligriya residence",1,jnt,,20000.00,123213.00,,0.00,transfer,143213,wait-payment,"03-01-2019 00:18"
35,SHOPBAY.ID,#SB100004,,asdasdasd,agus,8119401602,agusdwi89@gmail.com,IDN,"SULAWESI UTARA","KABUPATEN BOLAANG MONGONDOW","Kec. ",32432,"poligriya residence",1,jnt,,20000.00,123213.00,newyear,50000.00,transfer,93213,wait-payment,"03-01-2019 00:17"
36,SHOPBAY.ID,#SB100002,,asdasdasd,agus,8119401602,agusdwi89@gmail.com,IDN,"SULAWESI UTARA","KABUPATEN KEPULAUAN SANGIHE","Kec. ",32432,"poligriya residence",1,jnt,,20000.00,123213.00,,0.00,cod,143213,wait-payment,"02-01-2019 21:21"
37,SHOPBAY.ID,#SB100001,,asdasdasd,agus,8119401602,agusdwi89@gmail.com,IDN,"SULAWESI UTARA","KABUPATEN MINAHASA","Kec. ",32432,"poligriya residence",1,jne,,30000.00,123213.00,newyear,50000.00,transfer,103213,wait-payment,"02-01-2019 20:29"
38,SHOPBAY.ID,#SB100003,,asdasdasd,agus,8119401602,agusdwi89@gmail.com,IDN,"SULAWESI UTARA","KABUPATEN MINAHASA","Kec. ",32432,"poligriya residence",1,jne,,30000.00,123213.00,newyear,50000.00,cod,103213,wait-payment,"02-01-2019 19:03"
