No,Sub-Domain,Name,Email,Phone,Province,City
1,www,"agus dwi prayogo",agusdwi89@gmail.com,8119401602,"SULAWESI UTARA","KABUPATEN KEPULAUAN TALAUD"
2,www,Jdjd,Djdjdjdjdj@jdjdjd.com,83833,"SUMATERA BARAT","KABUPATEN SOLOK"
3,www,Agus,Agus@gmail.com,838383,"KEPULAUAN BANGKA BELITUNG","KABUPATEN BANGKA SELATAN"
4,www,"agus dwi prayogo",dzahindigital@gmail.com,8119401602,"SULAWESI UTARA","KABUPATEN KEPULAUAN SANGIHE"
5,www,"agus dwi prayogo",dzahindigital@gmail.com,8119401602,"SULAWESI UTARA","KABUPATEN MINAHASA"
6,www,"Randy Putong",Kimkimgracella@gmail.com,081212616111,PAPUA,"KOTA JAYAPURA"
7,www,"Setiaman batee",Setiamanbate03@gmail.com,081211242352,"DKI JAKARTA","KOTA JAKARTA BARAT"
8,www,Boneng,Boneng@gmail.com,081234765087,"NUSA TENGGARA BARAT","KABUPATEN SUMBAWA"
9,www,"I Putu Sai Candra Prema Nata",Saicandra92@gmail.com,081353781385,BALI,"KABUPATEN BADUNG"
10,www,Inol,Zainurrahman392@gmail.com,082333753976,"JAWA TIMUR","KABUPATEN SUMENEP"
11,www,Sutardhi,Tardhichung@gmail.com,081808663399,"DKI JAKARTA","KOTA JAKARTA UTARA"
12,www,"Wayan pagaryasa",pagaryasa@gmail.com,085337362362,BALI,"KABUPATEN KLUNGKUNG"
13,www,"Inggrid y paunno",inggridyuliani17@gmail.com,082199928729,"PAPUA BARAT","KABUPATEN TELUK WONDAMA"
14,www,Indra,putraindrahugen@gmail.com,081288987404,"SULAWESI SELATAN","KOTA MAKASSAR"
15,www,"rahmat hidayat",brantakan171@gmail.com,081242324577,PAPUA,"KOTA JAYAPURA"
16,www,"Agung Swandana Pratama",aswandana163@gmail.com,081244306902,"KALIMANTAN TIMUR","KABUPATEN KUTAI TIMUR"
17,www,"Sonny marthin conggresco",Sonnymc19@gmail.com,081244699752,"SULAWESI UTARA","KOTA MANADO"
18,www,"Nisrina fadila",Nisrinafadilaa@gmail.com,085603018451,"DKI JAKARTA","KOTA JAKARTA BARAT"
19,www,"Christian adhi wijaya",Christian.wijaya@lautan-luas.com,081394397180,"JAWA BARAT","KOTA BANDUNG"
20,www,"I gede brima dinata",Jack.dnata@gmail.com,081547433544,BALI,"KABUPATEN TABANAN"
21,www,"Agusfa rangga",agusfarangga8699@gmail.com,081257466927,"KALIMANTAN BARAT","KABUPATEN KETAPANG"
22,www,"Yoki abdul aziz",Yokiiabdulaziz58@gmail.com,087881119997,BANTEN,"KABUPATEN PANDEGLANG"
23,www,Sirajuddin,Sirajuddins910@gmail.com,082217529567,ACEH,"KABUPATEN ACEH UTARA"
24,www,Wardi,lielawardhy@gmail.com,087756250619,"JAWA TIMUR","KABUPATEN SUMENEP"
25,www,"Agustinus h ngadang",Agustinushendiandre@gmail.com,081284500788,"JAWA BARAT","KOTA DEPOK"
26,www,Tanzil,tanzilandrians11@gmail.com,087894262071,"NUSA TENGGARA BARAT","KOTA MATARAM"
27,www,Firdariana,Firdariana72@gmail.com,082277055054,"SUMATERA UTARA","KOTA MEDAN"
28,www,"fauzan hakim",fauzanhakim.fh77@gmail.com,082150560202,"KALIMANTAN SELATAN","KOTA BANJARMASIN"
29,www,"arya nugroho",mustanzierarya@gmail.com,082345943636,"SULAWESI TENGGARA","KOTA KENDARI"
30,www,"Arif Yuswandono",luqmanelhakiem1924@gmail.com,081514786360,"DKI JAKARTA","KOTA JAKARTA PUSAT"
31,www,Falah,Falahy7696@gmail.com,081296331599,"DKI JAKARTA","KOTA JAKARTA SELATAN"
32,www,"AHMAD SYAEFUDIN",achmad.syaefudin27@gmail.com,081217130371,"JAWA TENGAH","KOTA SEMARANG"
33,www,"Dadi pahlevy",dadipahlevy@yahoo.com,082153962061,"SUMATERA SELATAN","KOTA PALEMBANG"
34,www,Ezaa,Ezzajhie@gmail.com,O82113260051,"KALIMANTAN TIMUR","KABUPATEN KUTAI TIMUR"
35,www,"Nanang alamsyah",Debimelon338@gmail.com,082397778188,"KALIMANTAN SELATAN","KABUPATEN TANAH BUMBU"
36,www,"Surya baskara jaya",Suryabaskara88@gmail.com,081354752277,"JAWA TIMUR","KOTA SURABAYA"
37,www,"Ahmad Jaka Soemantrie",Ahmadjaka1113@gmail.com,082277438983,ACEH,"KOTA BANDA ACEH"
38,www,"Wayan Galang Juni rastika",WayanGalang65@Gmail.com,"0821 45769066?",BALI,"KABUPATEN BADUNG"
39,www,"ROHMAT KHOLIS",rohmatkholis.01@gmaal.com,081288183400,"DKI JAKARTA","KOTA JAKARTA TIMUR"
40,www,"Ray Nizar",ray.nizar26@gmail.com,081290898896,"DKI JAKARTA","KOTA JAKARTA PUSAT"
41,www,"Feri Nuryadi ",Feryagam21@gmail.com,081344697488,ACEH,"KOTA BANDA ACEH"
42,www,"mohammad soleh",msoleh272@gmail.com,08175103563,"JAWA TIMUR","KABUPATEN BANGKALAN"
43,www,"Soraya manurung",Sorayamanurung2@gmail.com,082166024718,"SUMATERA UTARA","KOTA PEMATANG SIANTAR"
44,www,"Gunawan kusnandar",guna_kusnandar@yahoo.co.id,08111288105,"JAWA BARAT","KABUPATEN KARAWANG"
45,www,Mirwan,mirwan88@ymail.com,082347798369,"SULAWESI SELATAN","KABUPATEN MAROS"
46,www,"hendri loupatty",denilsonsapari09@gmail.com,082248566390,PAPUA,"KOTA JAYAPURA"
47,www,"Ryan Zulfifa",rzulfifa@gmail.com,082289791996,JAMBI,"KOTA JAMBI"
48,www,sas,sdsd@gmail.com,792172917922,"DI YOGYAKARTA","KABUPATEN KULON PROGO"
49,www,Renaldy,muhamadrenald@gmail.com,473865302,BALI,"KABUPATEN TABANAN"
50,www,"Herlin dawo",Dawoherliana@yahoo.com,081289615501,"DKI JAKARTA","KOTA JAKARTA PUSAT"
51,www,"Amrizal Rengganis",amrizal.rengganis15@gmail.com,081374182777,"SUMATERA BARAT","KOTA PADANG"
52,www,andi,andisubair88@gmail.com,082255708777,"KALIMANTAN TIMUR","KOTA SAMARINDA"
53,www,"I Kadek Gunung Suyasa",dhex.mountain@gmail.com,081936566062,"NUSA TENGGARA BARAT","KOTA MATARAM"
54,www,Herry,Herrygama15@gmail.com,082192258202,"MALUKU UTARA","KABUPATEN HALMAHERA TENGAH"
55,www,"ryan chandra zulkarnaen panto",Chandravhica1626@gmail.com,081340273202,"SULAWESI UTARA","KOTA MANADO"
56,www,arifuddin,ariffuddin79139@gmail.com,085210749663,BANTEN,"KABUPATEN SERANG"
57,www,Roy,achmadrijalkholilurr@gmail.com,082258506562,BANTEN,"KOTA SERANG"
58,www,"Andre De Fretes",defretes.andre@gmail.com,085256909063,"SULAWESI UTARA","KABUPATEN MINAHASA"
59,www,"Dela Ocmilasari Hutabarat ",delahutabarat124@yahoo.com,082363997002,"SUMATERA UTARA","KOTA MEDAN"
60,www,Ardiyantosi,Ardi_yantosi@yahoo.co.id,085267017333,"SUMATERA SELATAN","KABUPATEN MUARA ENIM"
61,www,Sumardi,sumarditanjung@yahoo.co.id,082384585537,"DKI JAKARTA","KOTA JAKARTA UTARA"
62,www,"Rimbo bujang unit 2 pasar sarina",rizkyaulia1919@gmail.com,082174858193,JAMBI,"KABUPATEN TEBO"
63,www,"Solon Sihombing",bigsolon0808@gmail.com,08161961836,"DKI JAKARTA","KOTA JAKARTA PUSAT"
64,www,"Ngurah Arya Natih",nguraharya582@gmail.com,087761447001,BALI,"KOTA DENPASAR"
65,www,"ryan chandra zulkarnaen panto",chandrapanto86@gmail.com,081340273202,"SULAWESI UTARA","KOTA MANADO"
66,www,Husnulakbar,Bayhoki@gmail.com,081269858540,"SUMATERA UTARA","KABUPATEN LANGKAT"
67,www,"Chandra wijaya",cwijaya233@gmail.com,081362264888,"SUMATERA UTARA","KOTA MEDAN"
68,www,"Mirza ",abangmirza71@gmail.com,081990788899,"KALIMANTAN TIMUR","KOTA SAMARINDA"
69,www,sudirman,sudirmanrsn@gmail.com,081226003154,"SULAWESI SELATAN","KABUPATEN JENEPONTO"
70,www,Herwin,herwinhou@gmail.com,081212129975,BALI,"KABUPATEN BADUNG"
71,www,JulkifliYusup,djulkifli.djulkifli01@gmail.com,085349720825,"MALUKU UTARA","KOTA TERNATE"
72,www,"Haryono sapii",Haryonosapii1304@gmail.com,08122110674,GORONTALO,"KOTA GORONTALO"
73,www,Aden,Nugrahaspddendy@gmail.com,083866846380,"JAWA BARAT","KABUPATEN PURWAKARTA"
74,www,"Jln. Durian no.  79",udinheang.hino@gmail.com,+6285397008811,"SULAWESI TENGGARA","KOTA KENDARI"
75,www,"Yofiga Indrawab",ivo.viga.iv@gmail.com,082198954444,"JAWA TIMUR","KABUPATEN PROBOLINGGO"
76,www,"Putu dedisanjaya",puturoly@gmail.com,+6281239603006,BALI,"KABUPATEN BADUNG"
77,www,Rendi,ahmadzoulkifli023@gmail.com,085249776211,"NUSA TENGGARA BARAT","KABUPATEN LOMBOK TIMUR"
78,www,"Akmal kurniawan",akmalkurniawan095@gmail.com,+6281220433373,"SULAWESI SELATAN","KABUPATEN LUWU TIMUR"
79,www,Hasbi,Hasbitkj7@gmail.com,085261878714,"SUMATERA UTARA","KOTA MEDAN"
80,www,"SVANDI SAMPALENG",christian.sampaleng060995@gmail.com,081243517723,"SULAWESI UTARA","KOTA MANADO"
81,www,"Nikodemus norman s.",Normannikodemus77@gmail.com,085255520868,PAPUA,"KABUPATEN JAYAPURA"
82,www,"Muhammad mardani",Daniumar415@gmail.com,082358232375,"KALIMANTAN SELATAN","KABUPATEN HULU SUNGAI UTARA"
83,www,"Adhitya putra",Adityaputraa.a@gmail.com,081238904781,BALI,"KABUPATEN GIANYAR"
84,www,"Romia sari",Miamardison3@gmail.com,081267538883,RIAU,"KOTA PEKANBARU"
85,www,"Muh subri fadli",muh.subri96@gmail.com,081998507087,BALI,"KABUPATEN BADUNG"
86,www,"Jerry Andi depari",jerrydepari96@gmail.com,"081362545241 ","SUMATERA UTARA","KABUPATEN TOBA SAMOSIR"
87,www,Sudarmin,sudarmin76@yahoo.co.id,081350007957,"KALIMANTAN TIMUR","KOTA BALIKPAPAN"
88,www,"Kardi novriadi sihotang",Kardi3888@gmail.com,082240997711,"SUMATERA BARAT","KABUPATEN PADANG PARIAMAN"
89,www,"Ramonnico rusli",nico.ramon81@gmail.com,081276664888,"SUMATERA BARAT","KABUPATEN SOLOK SELATAN"
90,www,Billy,yuniar28@gmail.com,081387968811,"KALIMANTAN BARAT","KABUPATEN KETAPANG"
91,www,"Nur Fitriani",nv3ani.0611@gmail.com,08114535088,"SULAWESI TENGAH","KOTA PALU"
92,www,"Sutomo atmaja",Sutomoatmaja@yahoo.com,082159182433,"KALIMANTAN TIMUR","KOTA BALIKPAPAN"
93,www,"Mochammad Fadly Faldt",fadlyfaldy77@gmail.com,082167369959,"SULAWESI SELATAN","KOTA MAKASSAR"
94,www,"andra joistira",efndra@gmail.com,081347144636,"KALIMANTAN TIMUR","KABUPATEN BERAU"
95,www,Goeyardi,Goeykoji@yahoo.com,0816528108,BANTEN,"KOTA TANGERANG"
96,www,Afrizal,rizalriand@gmail.com,082280558798,JAMBI,"KABUPATEN BATANG HARI"
97,www,"Rifai Bayu Nugraha",bakmijawabayu.magelang@gmail.com,081226675461,"JAWA TENGAH","KABUPATEN MAGELANG"
98,www,Faisal,WE-elinno@yaho.com,082167799956,ACEH,"KOTA BANDA ACEH"
99,www,"Rasyid Ramadhan",rasyid.ramadhan01@gmail.com,085849754171,"KALIMANTAN SELATAN","KOTA BANJARMASIN"
100,www,endang,endangirawaty@yahoo.com,081354398449,"JAWA TIMUR","KABUPATEN SIDOARJO"
101,www,"Budi handoko",Budihandokopurbalingga@gmail.com,085647777001,"JAWA TENGAH","KABUPATEN PURBALINGGA"
102,www,"syaiful anwar",awnk_tea@yahoo.com,085238600865,"JAWA BARAT","KABUPATEN CIREBON"
103,www,"Rijalmen Mendrofa",ricky.mendrova@yahoo.co.id,08116339898,"SUMATERA UTARA","KABUPATEN NIAS UTARA"
104,www,"Dimas Prasetyahani",dims.prasetya@gmail.com,085747183070,"JAWA TENGAH","KABUPATEN BANYUMAS"
105,www,"Dimas Prasetyahani",dims.prasetya@gmail.com,085747183070,"JAWA TENGAH","KABUPATEN BANYUMAS"
106,www,ioou,sasa@gmail.com,081909922122,"JAWA TENGAH","KABUPATEN SRAGEN"
107,www,Dani,Danirahman333@gmail.com,085248184800,"KALIMANTAN SELATAN","KOTA BANJARMASIN"
108,www,Abdullatif,Alabdul.latif1986@gmail.com,081360724466,"SUMATERA UTARA","KOTA MEDAN"
109,www,"Rudy wijaya salim",Rudy29salim@gmail.com,0817802029,"DKI JAKARTA","KOTA JAKARTA UTARA"
110,www,"Fadil muhammad kosim",fadilmuhammad1933@gmail.com,089648591130,"JAWA BARAT","KABUPATEN BANDUNG"
111,www,"H Muhammad Chatab",mchattab@yahoo.com,08111077118,"KALIMANTAN TIMUR","KOTA SAMARINDA"
112,www,"Chandra wijaya",cwijaya233@gmail.com,081362264888,"SUMATERA UTARA","KOTA MEDAN"
113,www,Milawati,devitrk915@gmail.com,+62822-5143-0201,"KALIMANTAN UTARA","KOTA TARAKAN"
114,www,Vika,Selvennylisan@gmail.com,082255239110,"KALIMANTAN BARAT","KOTA SINGKAWANG"
115,www,"Putri Brilliantin",putribrilliantin@ymail.com,085397296464,"SULAWESI SELATAN","KABUPATEN GOWA"
116,www,"Teja Sungkawa",teja140186@gmail.com,08122123164,"JAWA BARAT","KABUPATEN BANDUNG"
117,www,Ibrahim,ktl_ibrahim@yahoo.com,085398807237,"SULAWESI TENGGARA","KABUPATEN MUNA"
118,www,"Yudi irwansyah toha",yudiirwansyahtoha@gmail.com,085263007555,"SUMATERA UTARA","KOTA MEDAN"
119,www,"Tsaqila Muvidah Halimah",Tsaqilahalimah@gmail.com,08129129747,"JAWA BARAT","KOTA BEKASI"
120,www,"ahmad maryadi",project5depok@gmail.com,0811937228,"KALIMANTAN TIMUR","KOTA SAMARINDA"
121,www,Taufiq,jibunkatu@gmail.com,082252200275,"KALIMANTAN SELATAN","KOTA BANJARMASIN"
122,www,"Umar hadi",Owner.bajoe@gmail.com,081325142631,"KALIMANTAN TIMUR","KABUPATEN BERAU"
123,www,"Olprine pangalasen",mateipangalasen@gmail.com,081244969032,"SULAWESI UTARA","KABUPATEN KEPULAUAN TALAUD"
124,www,"Foreman Hutasoit",foremanhutasoit@gmail.com,085360821883,"SUMATERA UTARA","KABUPATEN TAPANULI UTARA"
125,www,Henderiwijaya,Hendriwikaya778@gmail.com,089643506224,"DKI JAKARTA","KOTA JAKARTA BARAT"
126,www,"Tresa ",wirantonoagus@yahoo.com,081222006922,"JAWA TIMUR","KOTA SURABAYA"
127,www,andimangunsong,andimangunsong666@gmail.com,081918773436,"SUMATERA UTARA","KOTA MEDAN"
128,www,"BAYU RAHMAWIJAYA DWIKUSUMA",bayurahmawijaya@gmail.com,082290211594,"SULAWESI TENGGARA","KABUPATEN KONAWE SELATAN"
129,www,"Zainul Arisi",enolengko@gmail.com,085934546302,"NUSA TENGGARA BARAT","KABUPATEN LOMBOK TIMUR"
130,www,"Rohmat kholis",rohmatkholis.01@gmail.com,081288183400,"DKI JAKARTA","KOTA JAKARTA TIMUR"
131,www,"Abu Zed ",abuzed@istiqamah.id,081517222222,"SULAWESI SELATAN","KABUPATEN MAROS"
132,www,"Hanica Ayunia",Hanicaayunia1@gmail.com,089694861588,"SULAWESI UTARA","KOTA MANADO"
133,www,"Muslim baharudin",Baharudin1519@gmail.com,+6281266966804,"KEPULAUAN RIAU","KOTA B A T A M"
134,www,testing,test@yahoo.com,02312321,RIAU,"KABUPATEN PELALAWAN"
135,www,ssdsds,wds@gmail.com,123232322,"DI YOGYAKARTA","KABUPATEN KULON PROGO"
136,www,"Risky Yohanes Ligouw",yohanesmozartligouw@yahoo.co.id,082188383570,"SULAWESI UTARA","KABUPATEN MINAHASA"
137,www,"I Made Yogi Adi Nugraha",Kadek.sidii@gmail.com,083117933097,BALI,"KABUPATEN TABANAN"
138,www,"Koresh Kelelufna",chorez_vhier85@yahoo.com,081316228519,"PAPUA BARAT","KABUPATEN RAJA AMPAT"
139,www,"Abdul aziz h e",abdulazizoase@gmail.com,085394928903,"SULAWESI TENGAH","KOTA PALU"
140,www,Tust,testus@yahoo.com,0832424213,"DKI JAKARTA","KOTA JAKARTA TIMUR"
141,www,Test,test@yahoo.com,08766342342,"SUMATERA BARAT","KABUPATEN SOLOK"
142,www,"Michael Hadiyanto",michael_hadiyanto@yahoo.com,0811843429,"DKI JAKARTA","KOTA JAKARTA SELATAN"
143,www,Rofi'uddin,Ofik186lh@gmail.com,087788363860,"DKI JAKARTA","KOTA JAKARTA PUSAT"
144,www,"Imam fausi",Fauzidrt15@gmail.com,083853144441,"JAWA TIMUR","KABUPATEN BANGKALAN"
145,www,Imron,Imronmanwar19@gmail.com,085363220000,"SUMATERA SELATAN","KABUPATEN OGAN KOMERING ULU TIMUR"
146,www,Syela,Syela.mantiri@yahoo.com,081212906003,BANTEN,"KOTA TANGERANG"
147,www,"Said juttar",Zhaid02.mmm@gmail.com,082291459262,"SULAWESI SELATAN","KABUPATEN BULUKUMBA"
148,www,Ariani,They.qni01@gmail.com,081233349707,BALI,"KABUPATEN BADUNG"
149,www,"Nuzulul Furqon",furqonnuzulul24@gmail.com,081217897291,"JAWA TIMUR","KABUPATEN BANGKALAN"
150,www,Kurniawan,Benyamin.kurniawan@gmail.com,081351926099,"KALIMANTAN BARAT","KABUPATEN KETAPANG"
151,www,"Malun bariroh",Riyamalun@gmail.com,081349606622,"KALIMANTAN TENGAH","KABUPATEN KOTAWARINGIN TIMUR"
152,www,"Hunafa Shidqi Prawira",prawira123@gmail.com,085381265806,"SUMATERA UTARA","KOTA MEDAN"
153,www,"Deden Sutrisna ",dedenbrennan@gmail.com,081284138811,BALI,"KOTA DENPASAR"
154,www,"Khayyul Imdad",imdadkhayyul@gmail.com,081325764222,"JAWA TENGAH","KABUPATEN JEPARA"
155,www,"Oji Widaryanto",Ojiqbord@yahoo.com,081281180407,"JAWA BARAT","KABUPATEN BEKASI"
156,www,"Achmad Maulizal",ach.maulizal@gmail.com,081210668545,"DKI JAKARTA","KOTA JAKARTA TIMUR"
157,www,Ariwijaya,ariwijaya754@gmail.com,08125952910,"KALIMANTAN TIMUR","KOTA SAMARINDA"
158,www,"Redi sunandar",redisunandar@gmail.com,081288117677,"KALIMANTAN BARAT","KABUPATEN KAPUAS HULU"
159,www,"Adih setiadi",Adisetiadi299@gmail.com,082339293378,"NUSA TENGGARA BARAT","KOTA BIMA"
160,www,"ode rajab",oderajab1707@gmail.com,082248466916,PAPUA,"KABUPATEN KEPULAUAN YAPEN"
161,www,"Hardiantaa ginting",herdiantaginting60@gmail.com,081282071431,"DKI JAKARTA","KOTA JAKARTA PUSAT"
162,www,Yanti,anosionzalukhu@gmail.com,085270978080,"SUMATERA UTARA","KABUPATEN NIAS UTARA"
163,www,Harvin,harvinsumampouw82@gmail.com,"0821 1208 8895",PAPUA,"KABUPATEN MIMIKA"
164,www,"Andes Mariyanto",andesmariyanto55@gmail.com,082338185899,BALI,"KABUPATEN BADUNG"
165,www,"Muhammad shaleh",shalehalimin90@gmail.com,0812-1209-6012,"SULAWESI TENGAH","KABUPATEN MOROWALI"
166,www,suparto,pirtikpanhoten@gmail.com,0895335996550,"SUMATERA UTARA","KOTA MEDAN"
167,www,budi,imoet.budi@gmail.com,085251466666,"KALIMANTAN TIMUR","KABUPATEN PASER"
168,www,"Daniel octovan",Multimediaku266@yahoo.co.id,081241218299,PAPUA,"KOTA JAYAPURA"
169,www,Sofyan,Kausarpalangkaraya@yahoo.com,0811526532,"KALIMANTAN TENGAH","KOTA PALANGKA RAYA"
170,www,Putraleo,Putraleozendt@gmail.com,081395340685,"SUMATERA UTARA","KOTA MEDAN"
171,www,"Daeng Iqbal",Samsung.sst6776@gmail.com,085345241456,"KALIMANTAN BARAT","KABUPATEN KUBU RAYA"
172,www,"andul mutakhir",airah277@gmail.com,081342927602,"SULAWESI TENGGARA","KOTA KENDARI"
173,www,"Ahmad subhan",achmadsubhan272@gmail.com,08989885521,"JAWA TENGAH","KABUPATEN PEMALANG"
174,www,"Ipung maulana",kentopunk88@gmail.com,085349703277,"KALIMANTAN TIMUR","KABUPATEN BERAU"
175,bag,"Amri Gustian",eralsaputra12@gmail.com,085211498011,RIAU,"KABUPATEN INDRAGIRI HULU"
176,bag,"Alfons Laia",alfonslaia900@gmail.com,082273611493,"SUMATERA UTARA","KABUPATEN NIAS"
177,bag,Rosdiana,dian.azkaghaniabqari@yahoo.co.id,085224436464,"JAWA BARAT","KABUPATEN TASIKMALAYA"
178,bag,Yonga,Yongadunhill@gmail.com,085216796363,"DKI JAKARTA","KOTA JAKARTA UTARA"
179,bag,mahyanuddin,spulim43@gmail.com,081360362251,ACEH,"KOTA LANGSA"
180,www,mahyanuddin,spulim43@gmail.com,081360362251,ACEH,"KOTA LANGSA"
181,watch,"Vieko Rompas",mocosz.13@gmail.com,082290460133,"SULAWESI UTARA","KOTA BITUNG"
182,watch,"Andi Muhammad Rizal Wawo ",rizal.wawo@icloud.com,085234562627,"SULAWESI SELATAN","KOTA MAKASSAR"
183,watch,"Reza maulana",Rezamaualan@gmail.com,08175910133,"JAWA TIMUR","KOTA MALANG"
184,bag,Harman,pnpm.barat@gmail.com,085398087772,"SULAWESI SELATAN","KABUPATEN BONE"
185,bag,"Deden Sutrisna ",dedenbrennan@gmail.com,081284138811,"DKI JAKARTA","KOTA JAKARTA PUSAT"
186,watch,"Kurniadi Syahputra",Kurniadisyah@gmail.com,085271010121,RIAU,"KOTA PEKANBARU"
187,bag,"Jl.Yos Sudarso No.5",harvinsumampouw82@gmail.com,+6282112088895,PAPUA,"KABUPATEN MIMIKA"
188,www,"Nemin. ",nemin.aminudin97@gmail.com,081362635477,ACEH,"KABUPATEN SIMEULUE"
189,www,Susandi,Shandyselow@gmail.com,085247020767,"KALIMANTAN BARAT","KOTA PONTIANAK"
190,www,"Dede purwanto",dedepurwanto77249@gmail.com,087743554323,"JAWA BARAT","KABUPATEN BANDUNG"
191,www,"Bintang Suryo",bintang.suryo@gmail.com,08972332342,BANTEN,"KOTA TANGERANG SELATAN"
192,www,Syapri,syapri.lawyer@gmail.com,08126044852,"SUMATERA UTARA","KABUPATEN DELI SERDANG"
